(footprint "CON2_USB_MICRO_B_AT" (version 20211014) (generator pcbnew)
  (layer "F.Cu")
  (tedit 0)
  (fp_text reference "REF**" (at 0 0) (layer "F.SilkS")
    (effects (font (size 1.27 1.27) (thickness 0.15)))
    (tstamp 7dfc9f02-8c08-4f2c-a8aa-78e9e1a0d6d5)
  )
  (fp_text value "" (at 0 0) (layer "F.Fab")
    (effects (font (size 1.27 1.27) (thickness 0.15)))
    (tstamp e811c6dc-c8d5-4a76-ae9e-f64a8506cbd7)
  )
  (fp_text user "PCB" (at 4.826 1.27) (layer "F.SilkS")
    (effects (font (size 0.93472 0.93472) (thickness 0.08128)) (justify left bottom))
    (tstamp 28a3b8d6-8371-422a-b33f-182d9fc34313)
  )
  (fp_line (start -2.8448 -0.635) (end -2.7432 -0.635) (layer "F.Paste") (width 0.127) (tstamp 03f447e5-2a40-4459-add0-6ccb3e39c256))
  (fp_line (start -1.9558 -2.4892) (end -1.9558 -2.8956) (layer "F.Paste") (width 0.127) (tstamp 04cb3200-5a61-4171-b7a9-1fc7744f2bff))
  (fp_line (start -1.8288 -2.8702) (end -1.8288 -2.5146) (layer "F.Paste") (width 0.127) (tstamp 092623cb-8462-43c6-887c-aa56b365e992))
  (fp_line (start 1.9304 -2.8702) (end 1.9304 -2.5146) (layer "F.Paste") (width 0.127) (tstamp 09c45277-2311-46fb-a466-c11e43277be4))
  (fp_line (start -3.937 -0.5842) (end -3.937 0.5842) (layer "F.Paste") (width 0.127) (tstamp 0ef06af2-8828-44e6-b997-eaca6e878e71))
  (fp_line (start -2.8448 0.635) (end -2.8448 -0.635) (layer "F.Paste") (width 0.127) (tstamp 138b8492-f7dc-4c6c-b108-35d23defedd6))
  (fp_line (start 4.0132 -0.4318) (end 4.0132 0.4318) (layer "F.Paste") (width 0.127) (tstamp 14579110-c558-4747-9668-ba865475923c))
  (fp_line (start -2.9718 -0.6604) (end -2.9718 0.635) (layer "F.Paste") (width 0.127) (tstamp 1ac8b663-6ace-4977-aea8-e447d0b5f106))
  (fp_line (start 2.8194 0.5842) (end 2.8194 -0.5842) (layer "F.Paste") (width 0.127) (tstamp 1fb31437-361b-472d-9318-dbc39888f62e))
  (fp_line (start 2.9464 -0.5842) (end 2.9464 0.6096) (layer "F.Paste") (width 0.127) (tstamp 275a52c5-c8fa-4f8d-a6f6-3ec8dc5a7409))
  (fp_line (start 3.7592 0.6858) (end 2.8448 0.6858) (layer "F.Paste") (width 0.127) (tstamp 3c7ca791-7868-403b-8848-77a4cb86f54f))
  (fp_line (start 1.8288 -2.5146) (end 1.8288 -2.8702) (layer "F.Paste") (width 0.127) (tstamp 48be791b-43f3-440a-b87f-acbe7e62fa58))
  (fp_line (start 3.0226 -2.8956) (end 3.0226 -2.4892) (layer "F.Paste") (width 0.127) (tstamp 4d75f645-bdcd-44d9-8993-5473097d9687))
  (fp_line (start -3.0734 -0.6604) (end -2.9718 -0.6604) (layer "F.Paste") (width 0.127) (tstamp 53d7a444-22ab-449c-8b73-0f4c46f99b65))
  (fp_line (start -2.0828 -2.2606) (end -2.8956 -2.2606) (layer "F.Paste") (width 0.127) (tstamp 5c494ac2-0ce0-482d-a5e6-cbfd5ade8563))
  (fp_line (start -2.8956 -3.1242) (end -2.0828 -3.1242) (layer "F.Paste") (width 0.127) (tstamp 5ef27c0f-80c4-4388-920d-78bcd6a16d16))
  (fp_line (start -2.7432 -0.635) (end -2.7432 0.635) (layer "F.Paste") (width 0.127) (tstamp 6158e17b-c3ce-4d6a-828c-d469c3d06f33))
  (fp_line (start 2.8194 -0.5842) (end 2.9464 -0.5842) (layer "F.Paste") (width 0.127) (tstamp 6ee2cc5a-8804-4573-a698-192f152d10a5))
  (fp_line (start 3.9116 -0.5842) (end 3.9116 0.5842) (layer "F.Paste") (width 0.127) (tstamp 762da85e-75e4-4105-aa02-b57c9368513e))
  (fp_line (start -2.5654 -0.4318) (end -2.5654 0.4318) (layer "F.Paste") (width 0.127) (tstamp 7b1c1079-242b-4bab-ac00-414d82f917f2))
  (fp_line (start 2.8956 -2.2606) (end 2.0828 -2.2606) (layer "F.Paste") (width 0.127) (tstamp 7da9d0b0-bdef-479c-ad17-554255609003))
  (fp_line (start -3.1496 -2.5146) (end -3.1496 -2.8702) (layer "F.Paste") (width 0.127) (tstamp 7e3265a6-9296-43e8-b93f-088795632455))
  (fp_line (start 3.0734 0.5842) (end 3.0734 -0.6096) (layer "F.Paste") (width 0.127) (tstamp 7e9c7469-a4ab-4f0a-81cf-fa9ff19175ab))
  (fp_line (start -2.8194 0.6858) (end -3.7846 0.6858) (layer "F.Paste") (width 0.127) (tstamp 85bd5a9b-5745-4fae-a551-9bdb18e8c978))
  (fp_line (start 2.8448 -0.6858) (end 3.7592 -0.6858) (layer "F.Paste") (width 0.127) (tstamp 89d5ab65-d7af-4bc7-bc6b-43dabe548c4a))
  (fp_line (start 3.1496 -2.8702) (end 3.1496 -2.5146) (layer "F.Paste") (width 0.127) (tstamp 945dc11b-f294-410e-995e-739645ed8f5b))
  (fp_line (start -3.7846 -0.6858) (end -2.8194 -0.6858) (layer "F.Paste") (width 0.127) (tstamp a18d7c9b-0068-4ab4-bf18-8586d1b87bc4))
  (fp_line (start -2.9718 0.635) (end -2.8448 0.635) (layer "F.Paste") (width 0.127) (tstamp a19b6d86-a89a-42f4-83cf-b33994ec5ca6))
  (fp_line (start -2.9464 -0.6604) (end -2.9718 -0.6604) (layer "F.Paste") (width 0.127) (tstamp a9c7c17c-e73b-49ad-a3bf-62fb90463259))
  (fp_line (start -2.7432 0.635) (end -2.6924 0.635) (layer "F.Paste") (width 0.127) (tstamp b24be97a-8d27-4f16-a35c-d5a769658377))
  (fp_line (start 2.0828 -3.1242) (end 2.8956 -3.1242) (layer "F.Paste") (width 0.127) (tstamp c51fd29b-78e8-4359-8376-e3966863e88c))
  (fp_line (start -3.048 -2.8702) (end -3.0226 -2.4892) (layer "F.Paste") (width 0.127) (tstamp cda208ac-c7b4-40ee-8a42-7708945e16a2))
  (fp_line (start -2.6924 0.635) (end -2.6924 -0.635) (layer "F.Paste") (width 0.127) (tstamp cfcbbee1-1a99-4a66-8d0c-7d124661de12))
  (fp_line (start -3.0734 0.635) (end -3.0734 -0.6604) (layer "F.Paste") (width 0.127) (tstamp d55868fd-a4eb-44e6-a272-5b1a445acdc3))
  (fp_line (start 2.6924 -0.5842) (end 2.6924 0.5842) (layer "F.Paste") (width 0.127) (tstamp e5fad305-7f76-4c1a-a985-ca9b5c56656f))
  (fp_line (start 2.5908 0.4318) (end 2.5908 -0.4318) (layer "F.Paste") (width 0.127) (tstamp e90dcffa-6ff3-40f4-a28f-f1c9dcb4ac8a))
  (fp_line (start -4.0386 0.4318) (end -4.0386 -0.4318) (layer "F.Paste") (width 0.127) (tstamp eb032d7c-6a6d-46dc-be01-28b371540544))
  (fp_line (start 2.9464 0.6096) (end 3.048 0.6096) (layer "F.Paste") (width 0.127) (tstamp f3e35d5e-d9c0-4b69-ae1b-3c18d4b72860))
  (fp_line (start 2.6924 0.5842) (end 2.8194 0.5842) (layer "F.Paste") (width 0.127) (tstamp f9ed916f-205c-4f83-9e84-9373f0478235))
  (fp_arc (start -2.8956 -2.3622) (mid -2.985403 -2.399397) (end -3.0226 -2.4892) (layer "F.Paste") (width 0.127) (tstamp 05959432-61b4-4c38-99ff-0e36f78cd28b))
  (fp_arc (start 2.8448 0.6858) (mid 2.665195 0.611405) (end 2.5908 0.4318) (layer "F.Paste") (width 0.127) (tstamp 07a9f223-49ed-496d-8e4e-8f7845978797))
  (fp_arc (start 1.8288 -2.8702) (mid 1.903195 -3.049805) (end 2.0828 -3.1242) (layer "F.Paste") (width 0.127) (tstamp 0bf0b08a-8be0-4d99-810b-fa22a7c517d4))
  (fp_arc (start 3.7592 -0.6858) (mid 3.938805 -0.611405) (end 4.0132 -0.4318) (layer "F.Paste") (width 0.127) (tstamp 1f098571-a558-4111-aadc-af8229d1cd9c))
  (fp_arc (start -1.9558 -2.4892) (mid -1.992997 -2.399397) (end -2.0828 -2.3622) (layer "F.Paste") (width 0.127) (tstamp 21830ccc-eda0-4840-8868-91e0ff662567))
  (fp_arc (start 4.0132 0.4318) (mid 3.938805 0.611405) (end 3.7592 0.6858) (layer "F.Paste") (width 0.127) (tstamp 2fab330b-85fc-4eca-9122-b258b124537e))
  (fp_arc (start 1.9304 -2.8702) (mid 1.967597 -2.960003) (end 2.0574 -2.9972) (layer "F.Paste") (width 0.127) (tstamp 31f2f4d4-4c7b-45db-901a-8e310f6ba508))
  (fp_arc (start -1.8288 -2.5146) (mid -1.903195 -2.334995) (end -2.0828 -2.2606) (layer "F.Paste") (width 0.127) (tstamp 338ffa09-e3cd-4a76-9cea-94ca3662a75b))
  (fp_arc (start 3.1496 -2.5146) (mid 3.075205 -2.334995) (end 2.8956 -2.2606) (layer "F.Paste") (width 0.127) (tstamp 33e8a767-4417-4889-a4ef-c69c0d9c6bc4))
  (fp_arc (start -2.0828 -3.0226) (mid -1.992997 -2.985403) (end -1.9558 -2.8956) (layer "F.Paste") (width 0.127) (tstamp 3b7c5e87-cbc3-4d49-a57e-e8002060012b))
  (fp_arc (start -2.5654 0.4318) (mid -2.639795 0.611405) (end -2.8194 0.6858) (layer "F.Paste") (width 0.127) (tstamp 4e72d4e9-130c-43f7-8d54-d4744bd3afd8))
  (fp_arc (start -2.8956 -2.2606) (mid -3.075205 -2.334995) (end -3.1496 -2.5146) (layer "F.Paste") (width 0.127) (tstamp 5f0c7539-917b-4fe1-87af-209b80f423db))
  (fp_arc (start 2.0574 -2.3876) (mid 1.967597 -2.424797) (end 1.9304 -2.5146) (layer "F.Paste") (width 0.127) (tstamp 6b279ff7-6dda-4740-8a2b-dc28702dddef))
  (fp_arc (start 2.8956 -3.0226) (mid 2.985403 -2.985403) (end 3.0226 -2.8956) (layer "F.Paste") (width 0.127) (tstamp 801f7013-1273-41a0-88f0-f4b27f0b9fb3))
  (fp_arc (start -4.0386 -0.4318) (mid -3.964205 -0.611405) (end -3.7846 -0.6858) (layer "F.Paste") (width 0.127) (tstamp 8c8a8a2c-98ca-48f5-a2a4-df58a3ea77e7))
  (fp_arc (start -3.7846 0.6858) (mid -3.964205 0.611405) (end -4.0386 0.4318) (layer "F.Paste") (width 0.127) (tstamp 91aa9729-c388-4fa5-b0ef-52d0ad4fc409))
  (fp_arc (start -3.048 -2.8702) (mid -3.003363 -2.977963) (end -2.8956 -3.0226) (layer "F.Paste") (width 0.127) (tstamp 9920ecfd-604a-49e4-90c1-8f384a9df187))
  (fp_arc (start 2.5908 -0.4318) (mid 2.665195 -0.611405) (end 2.8448 -0.6858) (layer "F.Paste") (width 0.127) (tstamp a02e28ed-bf29-44bc-bc7b-bf31963fc8ce))
  (fp_arc (start -3.1496 -2.8702) (mid -3.075205 -3.049805) (end -2.8956 -3.1242) (layer "F.Paste") (width 0.127) (tstamp a6f9c52f-cc6e-42c1-8ab3-32717cc19b56))
  (fp_arc (start 2.0828 -2.2606) (mid 1.903195 -2.334995) (end 1.8288 -2.5146) (layer "F.Paste") (width 0.127) (tstamp b97021e6-94c6-4f04-9163-5ae1438eae29))
  (fp_arc (start -2.0828 -3.1242) (mid -1.903195 -3.049805) (end -1.8288 -2.8702) (layer "F.Paste") (width 0.127) (tstamp e0001db0-ea6e-4fef-bbb8-97a6d4e293a6))
  (fp_arc (start 3.0226 -2.4892) (mid 2.985403 -2.399397) (end 2.8956 -2.3622) (layer "F.Paste") (width 0.127) (tstamp ea545957-bc37-47b0-8a5d-892852fd0cff))
  (fp_arc (start 3.0734 0.5842) (mid 3.065961 0.602161) (end 3.048 0.6096) (layer "F.Paste") (width 0.127) (tstamp f9495c08-78db-4492-abae-a938415966cf))
  (fp_arc (start 2.8956 -3.1242) (mid 3.075205 -3.049805) (end 3.1496 -2.8702) (layer "F.Paste") (width 0.127) (tstamp fcd58b59-284c-4dfc-99c2-77e46da793c9))
  (fp_arc (start -2.8194 -0.6858) (mid -2.639795 -0.611405) (end -2.5654 -0.4318) (layer "F.Paste") (width 0.127) (tstamp ff58b1fd-bb70-4107-8dc1-1511a751e342))
  (fp_line (start -4.318 -1.016) (end -3.556 -1.016) (layer "F.SilkS") (width 0.254) (tstamp 0ee4bbaf-beaf-4093-ac57-22d4d00b7647))
  (fp_line (start 3.556 2.286) (end -3.556 2.286) (layer "F.SilkS") (width 0.254) (tstamp 1498ee1a-e727-4e28-86fe-21055e8f69db))
  (fp_line (start 3.556 -2.794) (end 3.556 -1.016) (layer "F.SilkS") (width 0.254) (tstamp 3065803f-c0fb-42ce-8a62-2a3570dff237))
  (fp_line (start -3.556 -1.016) (end -3.556 -2.794) (layer "F.SilkS") (width 0.254) (tstamp 3b3c2b04-823d-4d85-b4cd-e13d1ad3bb21))
  (fp_line (start -3.556 2.286) (end -3.556 1.016) (layer "F.SilkS") (width 0.254) (tstamp 43ef1cd4-1f9d-441c-8119-8be9571e8db1))
  (fp_line (start -4.064 1.4478) (end 7.366 1.4478) (layer "F.SilkS") (width 0.0508) (tstamp 479eac5b-2495-4846-b34a-8890543a0a01))
  (fp_line (start -4.318 1.016) (end -4.318 -1.016) (layer "F.SilkS") (width 0.254) (tstamp 7a447fb2-9ce8-41a8-92c1-fd176d542283))
  (fp_line (start 3.556 -1.016) (end 4.318 -1.016) (layer "F.SilkS") (width 0.254) (tstamp 826db9a8-faac-4c11-b1cf-96765d784252))
  (fp_line (start 4.318 -1.016) (end 4.318 1.016) (layer "F.SilkS") (width 0.254) (tstamp 8d7cdec8-ef48-4834-905a-422e4a20a130))
  (fp_line (start 4.318 1.016) (end 3.556 1.016) (layer "F.SilkS") (width 0.254) (tstamp 8f070179-80f4-451c-bcc4-3a09626a6f02))
  (fp_line (start 3.556 1.016) (end 3.556 2.286) (layer "F.SilkS") (width 0.254) (tstamp a04135ce-cd86-4390-85b7-5f54ea9c6c82))
  (fp_line (start -3.556 -2.794) (end 3.556 -2.794) (layer "F.SilkS") (width 0.254) (tstamp bceda4cf-3de8-4836-8e8e-029ff0f77efa))
  (fp_line (start -3.556 1.016) (end -4.318 1.016) (layer "F.SilkS") (width 0.254) (tstamp fde6c191-2a86-4fea-9a8b-919153346e3c))
  (pad "" np_thru_hole circle (at 2.6162 -2.6924) (size 0.7 0.7) (drill 0.7) (layers *.Cu *.Mask) (tstamp 2519c390-bd94-49f0-905d-6b0e9b866d84))
  (pad "" np_thru_hole circle (at -3.5052 -0.254) (size 0.7 0.7) (drill 0.7) (layers *.Cu *.Mask) (tstamp 3c77a17a-fbdb-4e3e-8838-e2cba9f5e061))
  (pad "" np_thru_hole circle (at 3.5052 0.254) (size 0.7 0.7) (drill 0.7) (layers *.Cu *.Mask) (tstamp 3d6648ef-f190-47ca-a1a5-04b834d6e849))
  (pad "" np_thru_hole circle (at -3.5052 0.254) (size 0.7 0.7) (drill 0.7) (layers *.Cu *.Mask) (tstamp 490f9337-11b4-45c3-87ba-b701112c9c91))
  (pad "" np_thru_hole circle (at 2.3622 -2.6924) (size 0.7 0.7) (drill 0.7) (layers *.Cu *.Mask) (tstamp 675af239-84b8-4f6d-81c9-dd1fc989b11b))
  (pad "" np_thru_hole circle (at -2.6162 -2.6924) (size 0.7 0.7) (drill 0.7) (layers *.Cu *.Mask) (tstamp 8355793c-ef0b-479b-8796-7be1f91c94cf))
  (pad "" np_thru_hole circle (at -2.3622 -2.6924) (size 0.7 0.7) (drill 0.7) (layers *.Cu *.Mask) (tstamp 8646167c-de29-41ea-a90c-810ea8e3219c))
  (pad "" np_thru_hole circle (at 3.5052 -0.254) (size 0.7 0.7) (drill 0.7) (layers *.Cu *.Mask) (tstamp d33151cf-8056-4fc7-aa71-2ef63ff55a49))
  (pad "P1" smd roundrect (at -1.3208 -2.6924) (size 0.4064 1.3462) (layers "F.Cu" "F.Paste" "F.Mask") (roundrect_rratio 0.05)
    (solder_mask_margin 0.1016) (tstamp 09acb318-2131-4d61-a432-2ca314547b9a))
  (pad "P2" smd roundrect (at -0.6604 -2.6924) (size 0.4064 1.3462) (layers "F.Cu" "F.Paste" "F.Mask") (roundrect_rratio 0.05)
    (solder_mask_margin 0.1016) (tstamp b5b37007-3c13-4547-87b1-046b40f7e225))
  (pad "P3" smd roundrect (at 0 -2.6924) (size 0.4064 1.3462) (layers "F.Cu" "F.Paste" "F.Mask") (roundrect_rratio 0.05)
    (solder_mask_margin 0.1016) (tstamp b2ffd5fe-37bf-44d7-8ef8-11776240e8b9))
  (pad "P4" smd roundrect (at 0.6604 -2.6924) (size 0.4064 1.3462) (layers "F.Cu" "F.Paste" "F.Mask") (roundrect_rratio 0.05)
    (solder_mask_margin 0.1016) (tstamp 4e8d13e5-ddeb-4e1e-8d4c-5dac9ee201f4))
  (pad "P5" smd roundrect (at 1.3208 -2.6924) (size 0.4064 1.3462) (layers "F.Cu" "F.Paste" "F.Mask") (roundrect_rratio 0.05)
    (solder_mask_margin 0.1016) (tstamp 3f3131a4-f8e7-4b00-a837-41eae46fd3c5))
  (pad "S1" smd roundrect (at -3.302 0) (size 1.651 1.5494) (layers "F.Cu" "F.Mask") (roundrect_rratio 0.1)
    (solder_mask_margin 0.1016) (tstamp a8dea69a-1729-421c-9344-6c991b1ca859))
  (pad "S2" smd roundrect (at 3.302 0) (size 1.651 1.5494) (layers "F.Cu" "F.Mask") (roundrect_rratio 0.1)
    (solder_mask_margin 0.1016) (tstamp da423372-5f50-465b-90fa-106de643f2c1))
  (pad "S3" smd roundrect (at -2.4892 -2.6924) (size 1.524 1.016) (layers "F.Cu" "F.Mask") (roundrect_rratio 0.4)
    (solder_mask_margin 0.1016) (tstamp 72e32e4d-fe69-4dd2-a312-0a3d280b8890))
  (pad "S4" smd roundrect (at 2.4892 -2.6924) (size 1.524 1.016) (layers "F.Cu" "F.Mask") (roundrect_rratio 0.4)
    (solder_mask_margin 0.1016) (tstamp 8ed6fa51-0e4e-42a5-961e-7f5ed758601a))
  (pad "S5" smd roundrect (at -1.016 0) (size 1.524 1.524) (layers "F.Cu" "F.Paste" "F.Mask") (roundrect_rratio 0.05)
    (solder_mask_margin 0.1016) (tstamp 45f78bec-4e90-4f97-b90d-c57b5fca761f))
  (pad "S6" smd roundrect (at 1.016 0) (size 1.524 1.524) (layers "F.Cu" "F.Paste" "F.Mask") (roundrect_rratio 0.05)
    (solder_mask_margin 0.1016) (tstamp 155c348f-abcf-46f8-8bd4-6e4bfeba5348))
)
