(footprint "I-PEX" (version 20211014) (generator pcbnew)
  (layer "F.Cu")
  (tedit 0)
  (fp_text reference "REF**" (at -2.54 -1.77) (layer "F.SilkS")
    (effects (font (size 1.1684 1.1684) (thickness 0.1016)) (justify left bottom))
    (tstamp d95977fb-5028-44a4-90d1-40b7e754f18b)
  )
  (fp_text value "" (at 0 0) (layer "F.Fab")
    (effects (font (size 1.27 1.27) (thickness 0.15)))
    (tstamp 98e7f294-c686-4081-a218-cdc88a060d1c)
  )
  (fp_line (start 0.55 1.77) (end 1.25 1.77) (layer "F.SilkS") (width 0.127) (tstamp 17d10775-2d6a-470d-8349-976699e271e1))
  (fp_line (start -1.75 -1.03) (end -1.75 -1.13) (layer "F.SilkS") (width 0.127) (tstamp 1b0af2e9-d8e9-4675-87f7-532d77958f41))
  (fp_line (start -1.55 1.77) (end -0.95 1.77) (layer "F.SilkS") (width 0.127) (tstamp 3302d993-1870-4a6d-9d32-4c9ad249e622))
  (fp_line (start -1.55 -1.33) (end 1.15 -1.33) (layer "F.SilkS") (width 0.127) (tstamp 551142c6-ace7-4041-bc1b-4084b3a7a2d1))
  (fp_arc (start 1.45 1.57) (mid 1.391421 1.711421) (end 1.25 1.77) (layer "F.SilkS") (width 0.127) (tstamp 1247c240-a89a-4894-8747-a78d74a31443))
  (fp_arc (start -1.75 -1.13) (mid -1.691421 -1.271421) (end -1.55 -1.33) (layer "F.SilkS") (width 0.127) (tstamp 9c26d2b9-b993-42cb-be67-4416622dc37a))
  (fp_arc (start 1.15 -1.33) (mid 1.362132 -1.242132) (end 1.45 -1.03) (layer "F.SilkS") (width 0.127) (tstamp a46d6ec3-e8ca-43e7-90e2-7c261172d030))
  (fp_arc (start -1.55 1.77) (mid -1.691421 1.711421) (end -1.75 1.57) (layer "F.SilkS") (width 0.127) (tstamp c5d89153-d054-43c1-814c-dd939eae1dd2))
  (pad "GND" smd rect (at -1.65 0.27) (size 1 2.2) (layers "F.Cu" "F.Paste" "F.Mask")
    (solder_mask_margin 0.1016) (tstamp 0585b836-d29e-47fa-90a6-b7a806bb5b3d))
  (pad "GND1" smd rect (at 1.35 0.27) (size 1 2.2) (layers "F.Cu" "F.Paste" "F.Mask")
    (solder_mask_margin 0.1016) (tstamp 23c52312-00f5-450d-96dd-6dee2bd21cd3))
  (pad "SIG" smd rect (at -0.15 1.77 90) (size 1 1) (layers "F.Cu" "F.Paste" "F.Mask")
    (solder_mask_margin 0.1016) (tstamp cb5c7700-844e-44b9-9c39-170b76f96fa9))
  (zone (net 0) (net_name "") (layer "F.Cu") (tstamp 18906d84-757c-4ec0-9cfc-05e3ee5d4e3b) (hatch edge 0.508)
    (connect_pads (clearance 0))
    (min_thickness 0.254)
    (keepout (tracks not_allowed) (vias not_allowed) (pads not_allowed ) (copperpour not_allowed) (footprints allowed))
    (fill (thermal_gap 0.508) (thermal_bridge_width 0.508))
    (polygon
      (pts
        (xy -1.0922 1.27)
        (xy 0.8382 1.27)
        (xy 0.8382 -1.3462)
        (xy -1.0922 -1.3462)
      )
    )
  )
)
