(footprint "MSK-12D18A" (version 20211014) (generator pcbnew)
  (layer "F.Cu")
  (tedit 0)
  (fp_text reference "REF**" (at 2.7686 0.6604) (layer "F.SilkS")
    (effects (font (size 1.1684 1.1684) (thickness 0.1016)) (justify left bottom))
    (tstamp 51334d07-26cd-4cd0-af61-daba0470f042)
  )
  (fp_text value ">VALUE" (at -1.191 -3.9624) (layer "F.Fab")
    (effects (font (size 1.1684 1.1684) (thickness 0.1016)) (justify left bottom))
    (tstamp 902365d3-33af-4007-8917-d2b43e343df6)
  )
  (fp_line (start -2.75 -5.81) (end -1.25 -5.81) (layer "F.SilkS") (width 0.127) (tstamp 2af95ee6-dba9-4187-beaa-d4087460f264))
  (fp_line (start -1.25 -5.81) (end -1.25 -3.81) (layer "F.SilkS") (width 0.127) (tstamp 398ffd7a-41d8-4151-b247-7b459714f1cb))
  (fp_line (start -1.25 -3.81) (end 3 -3.81) (layer "F.SilkS") (width 0.127) (tstamp 5c7b2f95-c2d8-4d49-b573-6a60b4b4bb32))
  (fp_line (start 3 -0.81) (end 3 -3.81) (layer "F.SilkS") (width 0.127) (tstamp 5f999254-ea0a-4a61-b1ae-63896da7fbc8))
  (fp_line (start -1.25 -3.81) (end -2.75 -3.81) (layer "F.SilkS") (width 0.127) (tstamp 6e169f73-9b30-481e-a1ea-cf283ad62e4d))
  (fp_line (start -5 -0.81) (end 3 -0.81) (layer "F.SilkS") (width 0.127) (tstamp 8056e944-cb18-4a4c-a1f7-3bc24ea24518))
  (fp_line (start -2.75 -3.81) (end -2.75 -5.81) (layer "F.SilkS") (width 0.127) (tstamp b7f0c65a-8b3d-4e40-b6f7-c71e33d7d9aa))
  (fp_line (start -2.75 -3.81) (end -5 -3.81) (layer "F.SilkS") (width 0.127) (tstamp e801f24c-9593-48af-a0fc-0c266d530fb7))
  (fp_line (start -5 -3.81) (end -5 -0.81) (layer "F.SilkS") (width 0.127) (tstamp f8c3657b-a356-4aea-ac12-f03b354352df))
  (pad "1" smd rect (at -2 0.1524 90) (size 1.8 0.6) (layers "F.Cu" "F.Paste" "F.Mask")
    (solder_mask_margin 0.1016) (tstamp 00590c0e-1cea-496c-9a1b-b24a712f60d7))
  (pad "2" smd rect (at 0 0.1524 90) (size 1.8 0.6) (layers "F.Cu" "F.Paste" "F.Mask")
    (solder_mask_margin 0.1016) (tstamp 2a33bbbb-782d-4192-96df-ae38e89660af))
  (pad "3" smd rect (at 2 0.1524 90) (size 1.8 0.6) (layers "F.Cu" "F.Paste" "F.Mask")
    (solder_mask_margin 0.1016) (tstamp b7799540-61b0-47db-8d1c-879935b19a33))
  (pad "P$1" thru_hole circle (at -4.06 -3.81) (size 1.27 1.27) (drill 0.5) (layers *.Cu *.Mask)
    (solder_mask_margin 0.1016) (tstamp 35673aac-043e-424d-be70-e11998b364a5))
  (pad "P$2" thru_hole circle (at 2.34 -3.81) (size 1.27 1.27) (drill 0.5) (layers *.Cu *.Mask)
    (solder_mask_margin 0.1016) (tstamp 838da9ef-50e7-43bf-a6f1-db134e78fb3e))
)
