(footprint "QFN-24" (version 20211014) (generator pcbnew)
  (layer "F.Cu")
  (tedit 0)
  (fp_text reference "REF**" (at 3.81 -1.27) (layer "F.SilkS")
    (effects (font (size 1.1684 1.1684) (thickness 0.1016)) (justify left bottom))
    (tstamp e2193a89-0cff-405e-87c7-f7923223eddb)
  )
  (fp_text value ">VALUE" (at 3.81 1.27) (layer "F.Fab")
    (effects (font (size 1.1684 1.1684) (thickness 0.1016)) (justify left bottom))
    (tstamp d6e830a2-f017-4741-a7f4-43436ffa8ef8)
  )
  (fp_line (start 1.5 1.2) (end 1.5 1.5) (layer "F.SilkS") (width 0.127) (tstamp 04f62780-336e-4dcf-aec5-8a675a10575f))
  (fp_line (start -1.5 -1.5) (end -1.5 -1.2) (layer "F.SilkS") (width 0.127) (tstamp 05412af5-9805-476a-b016-f68d17371b0b))
  (fp_line (start -1.5 1.5) (end -1.2 1.5) (layer "F.SilkS") (width 0.127) (tstamp 5238f613-b2cb-4e9d-80c2-5796c930c32f))
  (fp_line (start 1.2 1.5) (end 1.5 1.5) (layer "F.SilkS") (width 0.127) (tstamp 5655d30a-e8f5-447e-a23e-688e2e99e3ad))
  (fp_line (start 1.2 -1.5) (end 1.5 -1.5) (layer "F.SilkS") (width 0.127) (tstamp d22a48b6-c5fe-4276-a11e-552144c07436))
  (fp_line (start 1.5 -1.5) (end 1.5 -1.2) (layer "F.SilkS") (width 0.127) (tstamp ebdbf8c0-3da2-44ca-88c7-81d7d3fec483))
  (fp_line (start -1.5 -1.5) (end -1.2 -1.5) (layer "F.SilkS") (width 0.127) (tstamp ef53239b-92b2-43ea-b0e9-3a0f1618dcf6))
  (fp_line (start -1.5 1.2) (end -1.5 1.5) (layer "F.SilkS") (width 0.127) (tstamp f185ed2b-6ec9-4abe-9dcd-9c67ceccdbc1))
  (fp_circle (center -2.28245 -2.0348) (end -2.058844 -2.0348) (layer "F.SilkS") (width 0.127) (fill none) (tstamp b0f48d2c-2594-45c4-891f-d802fff5d9b0))
  (pad "1" smd roundrect (at -1.5 -1 90) (size 0.2 0.6) (layers "F.Cu" "F.Paste" "F.Mask") (roundrect_rratio 0.39)
    (solder_mask_margin 0.1016) (tstamp 78beba94-ec59-42b4-a3bf-8e41e0e6216e))
  (pad "2" smd roundrect (at -1.5 -0.6 90) (size 0.2 0.6) (layers "F.Cu" "F.Paste" "F.Mask") (roundrect_rratio 0.39)
    (solder_mask_margin 0.1016) (tstamp 92072336-3b7c-4d9a-afcc-1c561be184e2))
  (pad "3" smd roundrect (at -1.5 -0.2 90) (size 0.2 0.6) (layers "F.Cu" "F.Paste" "F.Mask") (roundrect_rratio 0.39)
    (solder_mask_margin 0.1016) (tstamp 18e91eaa-3985-485c-909f-aa3de4923326))
  (pad "4" smd roundrect (at -1.5 0.2 90) (size 0.2 0.6) (layers "F.Cu" "F.Paste" "F.Mask") (roundrect_rratio 0.39)
    (solder_mask_margin 0.1016) (tstamp 3b27ce72-fe80-4229-8e81-c2824118c2cf))
  (pad "5" smd roundrect (at -1.5 0.6 90) (size 0.2 0.6) (layers "F.Cu" "F.Paste" "F.Mask") (roundrect_rratio 0.39)
    (solder_mask_margin 0.1016) (tstamp 9f8cb8ca-c0bd-47ca-befa-0e660671b429))
  (pad "6" smd roundrect (at -1.5 1 90) (size 0.2 0.6) (layers "F.Cu" "F.Paste" "F.Mask") (roundrect_rratio 0.39)
    (solder_mask_margin 0.1016) (tstamp 2b575fff-da37-4aea-a44a-e947d5997062))
  (pad "7" smd roundrect (at -1 1.5 180) (size 0.2 0.6) (layers "F.Cu" "F.Paste" "F.Mask") (roundrect_rratio 0.39)
    (solder_mask_margin 0.1016) (tstamp 0001ac09-3d8e-441a-b3dd-4b1e22b14b19))
  (pad "8" smd roundrect (at -0.6 1.5) (size 0.2 0.6) (layers "F.Cu" "F.Paste" "F.Mask") (roundrect_rratio 0.39)
    (solder_mask_margin 0.1016) (tstamp 7b520dce-e590-4389-a52b-5429f2966a36))
  (pad "9" smd roundrect (at -0.2 1.5) (size 0.2 0.6) (layers "F.Cu" "F.Paste" "F.Mask") (roundrect_rratio 0.39)
    (solder_mask_margin 0.1016) (tstamp fc407bf1-764a-4663-8163-5719e9b3681a))
  (pad "10" smd roundrect (at 0.2 1.5) (size 0.2 0.6) (layers "F.Cu" "F.Paste" "F.Mask") (roundrect_rratio 0.39)
    (solder_mask_margin 0.1016) (tstamp 67f8854d-e936-471d-ba7c-3f61d5067937))
  (pad "11" smd roundrect (at 0.6 1.5) (size 0.2 0.6) (layers "F.Cu" "F.Paste" "F.Mask") (roundrect_rratio 0.39)
    (solder_mask_margin 0.1016) (tstamp 55630145-2d92-4cf0-9c7f-0d7b1c7d0ca4))
  (pad "12" smd roundrect (at 1 1.5) (size 0.2 0.6) (layers "F.Cu" "F.Paste" "F.Mask") (roundrect_rratio 0.39)
    (solder_mask_margin 0.1016) (tstamp b1071d6e-8662-4a17-af1e-3ec30997fc51))
  (pad "13" smd roundrect (at 1.5 1 90) (size 0.2 0.6) (layers "F.Cu" "F.Paste" "F.Mask") (roundrect_rratio 0.39)
    (solder_mask_margin 0.1016) (tstamp 846d4885-b10e-45af-8c67-72efebf211ca))
  (pad "14" smd roundrect (at 1.5 0.6 90) (size 0.2 0.6) (layers "F.Cu" "F.Paste" "F.Mask") (roundrect_rratio 0.39)
    (solder_mask_margin 0.1016) (tstamp 2fe2af26-344b-4460-85a8-37949696ec56))
  (pad "15" smd roundrect (at 1.5 0.2 90) (size 0.2 0.6) (layers "F.Cu" "F.Paste" "F.Mask") (roundrect_rratio 0.39)
    (solder_mask_margin 0.1016) (tstamp b480216e-5cf5-44bb-9727-ae784ae2fe1c))
  (pad "16" smd roundrect (at 1.5 -0.2 90) (size 0.2 0.6) (layers "F.Cu" "F.Paste" "F.Mask") (roundrect_rratio 0.39)
    (solder_mask_margin 0.1016) (tstamp 727230a8-0520-444a-8618-aca90ceda443))
  (pad "17" smd roundrect (at 1.5 -0.6 90) (size 0.2 0.6) (layers "F.Cu" "F.Paste" "F.Mask") (roundrect_rratio 0.39)
    (solder_mask_margin 0.1016) (tstamp 2298964f-3c79-4ef8-8c03-974e38102a5e))
  (pad "18" smd roundrect (at 1.5 -1 90) (size 0.2 0.6) (layers "F.Cu" "F.Paste" "F.Mask") (roundrect_rratio 0.39)
    (solder_mask_margin 0.1016) (tstamp b253ac10-136e-4546-bcec-31cdcb81e5ec))
  (pad "19" smd roundrect (at 1 -1.5 180) (size 0.2 0.6) (layers "F.Cu" "F.Paste" "F.Mask") (roundrect_rratio 0.39)
    (solder_mask_margin 0.1016) (tstamp 79d67775-9cc3-4cc8-a8c9-aedc4d0c311b))
  (pad "20" smd roundrect (at 0.6 -1.5 180) (size 0.2 0.6) (layers "F.Cu" "F.Paste" "F.Mask") (roundrect_rratio 0.39)
    (solder_mask_margin 0.1016) (tstamp e8afa7e9-4a39-4ff4-b3f3-f1a559e2c484))
  (pad "21" smd roundrect (at 0.2 -1.5 180) (size 0.2 0.6) (layers "F.Cu" "F.Paste" "F.Mask") (roundrect_rratio 0.39)
    (solder_mask_margin 0.1016) (tstamp 146fbe27-9a20-47a3-a070-1a39a67e6d58))
  (pad "22" smd roundrect (at -0.2 -1.5 180) (size 0.2 0.6) (layers "F.Cu" "F.Paste" "F.Mask") (roundrect_rratio 0.39)
    (solder_mask_margin 0.1016) (tstamp 54b8c328-9d51-4932-91fc-96a90050cf99))
  (pad "23" smd roundrect (at -0.6 -1.5 180) (size 0.2 0.6) (layers "F.Cu" "F.Paste" "F.Mask") (roundrect_rratio 0.39)
    (solder_mask_margin 0.1016) (tstamp e2a35984-d3dd-4391-8a91-191a4829f2aa))
  (pad "24" smd roundrect (at -1 -1.5 180) (size 0.2 0.6) (layers "F.Cu" "F.Paste" "F.Mask") (roundrect_rratio 0.39)
    (solder_mask_margin 0.1016) (tstamp 111b2506-b050-4f0c-9c68-073781ac6227))
  (pad "25" smd rect (at 0 0) (size 1.7 1.54) (layers "F.Cu" "F.Paste" "F.Mask")
    (solder_mask_margin 0.1016) (tstamp a3d4c200-1b1b-40ff-97d7-b2276bf5d447))
)
