(footprint "R0402" (version 20211014) (generator pcbnew)
  (layer "F.Cu")
  (tedit 0)
  (descr "<b>RESISTOR</b><p>\nchip")
  (fp_text reference "REF**" (at -1.905 -0.635) (layer "F.SilkS")
    (effects (font (size 0.747776 0.747776) (thickness 0.065024)) (justify left bottom))
    (tstamp 3391522d-37e5-42b1-adbd-d85694b25532)
  )
  (fp_text value ">VALUE" (at -1.905 1.397) (layer "F.Fab")
    (effects (font (size 0.747776 0.747776) (thickness 0.065024)) (justify left bottom))
    (tstamp 4987d624-dd29-4505-b4d2-6c78e35ae46d)
  )
  (fp_poly (pts
      (xy -0.1999 0.4001)
      (xy 0.1999 0.4001)
      (xy 0.1999 -0.4001)
      (xy -0.1999 -0.4001)
    ) (layer "F.Adhes") (width 0) (fill solid) (tstamp 6d08ca5e-1c7f-4c1c-aa6f-8a486524915f))
  (fp_line (start -0.508 -0.4445) (end -1.016 -0.4445) (layer "F.SilkS") (width 0.127) (tstamp 17bf73ea-5efd-4cb7-97bd-80191b83fd4e))
  (fp_line (start 1.016 0.4445) (end 1.016 -0.4445) (layer "F.SilkS") (width 0.127) (tstamp 1b2269d0-285b-4ec8-ba46-3625322fdeff))
  (fp_line (start 0.508 0.4445) (end 1.016 0.4445) (layer "F.SilkS") (width 0.127) (tstamp 222a27a6-f7cd-4fc7-98f3-329ace732eb8))
  (fp_line (start -1.016 0.4445) (end -0.508 0.4445) (layer "F.SilkS") (width 0.127) (tstamp 28661849-520b-4d53-a5dc-bee39bd9ef5f))
  (fp_line (start 1.016 -0.4445) (end 0.508 -0.4445) (layer "F.SilkS") (width 0.127) (tstamp cfacbf62-f213-4337-aa58-951cedfc29f0))
  (fp_line (start -1.016 -0.4445) (end -1.016 0.4445) (layer "F.SilkS") (width 0.127) (tstamp dacad28a-abf2-476c-960a-1f428461422f))
  (fp_line (start 1.092 -0.483) (end 1.092 0.483) (layer "F.CrtYd") (width 0.0508) (tstamp 5cbbd1f3-993d-48df-9a3e-a4aa43a80493))
  (fp_line (start -1.092 -0.483) (end 1.092 -0.483) (layer "F.CrtYd") (width 0.0508) (tstamp 90f64bb9-9f1e-4df3-9e0a-46d421aec5b0))
  (fp_line (start 1.092 0.483) (end -1.092 0.483) (layer "F.CrtYd") (width 0.0508) (tstamp cf95d0d7-09ae-4a44-8066-37d23e87ceee))
  (fp_line (start -1.092 0.483) (end -1.092 -0.483) (layer "F.CrtYd") (width 0.0508) (tstamp f70a685c-448e-48d9-95fa-e832473eb822))
  (pad "1" smd rect (at -0.4572 0) (size 0.6096 0.6096) (layers "F.Cu" "F.Paste" "F.Mask")
    (solder_mask_margin 0.1016) (tstamp 9e436741-b651-4e8e-b153-34263f0b6996))
  (pad "2" smd rect (at 0.4572 0) (size 0.6096 0.6096) (layers "F.Cu" "F.Paste" "F.Mask")
    (solder_mask_margin 0.1016) (tstamp d3ca6bc2-ca77-41eb-bfc5-53c094370671))
)
