(footprint "R0805" (version 20211014) (generator pcbnew)
  (layer "F.Cu")
  (tedit 0)
  (descr "<b>RESISTOR</b><p>\nchip")
  (fp_text reference "REF**" (at -2.032 -1.143) (layer "F.SilkS")
    (effects (font (size 0.747776 0.747776) (thickness 0.065024)) (justify left bottom))
    (tstamp 6b840107-9c6c-42fc-9fff-90d9a676b355)
  )
  (fp_text value ">VALUE" (at -2.032 2.032) (layer "F.Fab")
    (effects (font (size 0.747776 0.747776) (thickness 0.065024)) (justify left bottom))
    (tstamp 18887dcf-2d3a-405a-b897-cefabda32baa)
  )
  (fp_line (start -1.905 1.016) (end -0.889 1.016) (layer "F.SilkS") (width 0.127) (tstamp 18f29e91-97f1-4555-85e8-6eabfe94e84f))
  (fp_line (start -1.905 -1.016) (end -1.905 1.016) (layer "F.SilkS") (width 0.127) (tstamp 1c0e4f2a-08cd-4843-bf56-e9a09d036861))
  (fp_line (start -0.762 -1.016) (end -1.905 -1.016) (layer "F.SilkS") (width 0.127) (tstamp 3e1a287e-d708-453f-bfe4-156419c0c275))
  (fp_line (start 1.905 1.016) (end 0.889 1.016) (layer "F.SilkS") (width 0.127) (tstamp 5be06536-48ee-40d0-9f2f-2e3d1b40d851))
  (fp_line (start 0.889 -1.016) (end 1.905 -1.016) (layer "F.SilkS") (width 0.127) (tstamp aba1d3e6-b4e5-46a7-b3df-6e8ef858b17d))
  (fp_line (start 1.905 -1.016) (end 1.905 1.016) (layer "F.SilkS") (width 0.127) (tstamp c5d0f8bf-7975-4a8b-a8ab-ec9c505bb3f7))
  (fp_line (start 1.973 -0.983) (end 1.973 0.983) (layer "F.CrtYd") (width 0.0508) (tstamp b16bbcdb-8b13-4331-bbbc-f6f2b55128ac))
  (fp_line (start -1.973 0.983) (end -1.973 -0.983) (layer "F.CrtYd") (width 0.0508) (tstamp b8453d16-2e1d-47f8-88c2-9042d9957b6f))
  (fp_line (start -1.973 -0.983) (end 1.973 -0.983) (layer "F.CrtYd") (width 0.0508) (tstamp bf7ecfac-140e-4448-a39d-27c6475d816c))
  (fp_line (start 1.973 0.983) (end -1.973 0.983) (layer "F.CrtYd") (width 0.0508) (tstamp dbb953c7-71c8-4a6e-b3bd-c6f26923bef6))
  (pad "1" smd rect (at -0.9 0) (size 1.2 1.5) (layers "F.Cu" "F.Paste" "F.Mask")
    (solder_mask_margin 0.1016) (tstamp 5b787765-a5f2-4215-a113-402a29811207))
  (pad "2" smd rect (at 0.9 0) (size 1.2 1.5) (layers "F.Cu" "F.Paste" "F.Mask")
    (solder_mask_margin 0.1016) (tstamp ab9f4a59-d5c4-4da3-a9f0-7cb418eff0eb))
)
