(footprint "SOD?923" (version 20211014) (generator pcbnew)
  (layer "F.Cu")
  (tedit 0)
  (fp_text reference "REF**" (at -1.27 1.27) (layer "F.SilkS")
    (effects (font (size 0.747776 0.747776) (thickness 0.065024)) (justify left bottom))
    (tstamp e331bf42-21bf-4e49-a6c7-40c0f73813ea)
  )
  (fp_text value "" (at 0 0) (layer "F.Fab")
    (effects (font (size 1.27 1.27) (thickness 0.15)))
    (tstamp f72ac1de-7e9c-418a-9974-d082dcafb70a)
  )
  (fp_line (start -0.7366 -0.3302) (end 0.7112 -0.3302) (layer "F.SilkS") (width 0.127) (tstamp 211692af-11a3-4a35-8b06-8eff9aadd78d))
  (fp_line (start 0.7112 -0.3302) (end 0.7112 0.3302) (layer "F.SilkS") (width 0.127) (tstamp 254d0b9a-a26b-4b13-9c0a-951723f93ab5))
  (fp_line (start 0.7112 0.3302) (end -0.7366 0.3302) (layer "F.SilkS") (width 0.127) (tstamp 2615781b-e041-49ea-9f6d-f0b018c8aa16))
  (fp_line (start -0.7366 0.3302) (end -0.7366 -0.3302) (layer "F.SilkS") (width 0.127) (tstamp 58836d55-8feb-4ae2-a0da-a1339f0e0636))
  (pad "P$1" smd rect (at -0.45 0) (size 0.3 0.4) (layers "F.Cu" "F.Paste" "F.Mask")
    (solder_mask_margin 0.1016) (tstamp 8eb5541d-eef7-478f-9f59-3a7d4b247edf))
  (pad "P$2" smd rect (at 0.45 0) (size 0.3 0.4) (layers "F.Cu" "F.Paste" "F.Mask")
    (solder_mask_margin 0.1016) (tstamp e6581470-4733-4a62-9d8b-a14a6691559f))
)
