(footprint "SOT-23-HIGH-POWER" (version 20211014) (generator pcbnew)
  (layer "F.Cu")
  (tedit 0)
  (descr "<b>Small Outline Transistor</b>")
  (fp_text reference "REF**" (at -1.397 -3.302) (layer "F.SilkS")
    (effects (font (size 1.143 1.143) (thickness 0.127)) (justify left bottom))
    (tstamp a3f45884-1cc4-481b-9f2f-0d5ba5ce0237)
  )
  (fp_text value ">VALUE" (at -1.397 -1.778) (layer "F.Fab")
    (effects (font (size 1.143 1.143) (thickness 0.127)) (justify left bottom))
    (tstamp 35f697b0-69dd-450b-8953-94c324955a47)
  )
  (fp_poly (pts
      (xy -1.397 -0.254)
      (xy -0.508 -0.254)
      (xy -0.508 -1.143)
      (xy -1.397 -1.143)
    ) (layer "F.Paste") (width 0) (fill solid) (tstamp 2c0b8bd1-472e-46d0-901c-a7ae3b0d8803))
  (fp_poly (pts
      (xy -0.447 1.265)
      (xy 0.442 1.265)
      (xy 0.442 0.376)
      (xy -0.447 0.376)
    ) (layer "F.Paste") (width 0) (fill solid) (tstamp aea01d7b-887f-4efc-a35a-bbfb38e2a615))
  (fp_poly (pts
      (xy 0.503 -0.254)
      (xy 1.392 -0.254)
      (xy 1.392 -1.143)
      (xy 0.503 -1.143)
    ) (layer "F.Paste") (width 0) (fill solid) (tstamp e8e8e834-76f5-407a-b695-21d042edf5db))
  (fp_line (start 1.4732 -0.381) (end 1.4732 0.381) (layer "F.SilkS") (width 0.1524) (tstamp 4a0614d2-e890-46f1-9a1b-763195eefbf8))
  (fp_line (start -1.4224 -0.381) (end 1.4732 -0.381) (layer "F.SilkS") (width 0.1524) (tstamp 8e166e12-6c7a-49cd-b252-3153e49b60b1))
  (fp_line (start -1.4224 0.381) (end -1.4224 -0.381) (layer "F.SilkS") (width 0.1524) (tstamp 90440740-f302-4b37-8d77-ededf8b951cc))
  (fp_line (start 1.4732 0.381) (end -1.4224 0.381) (layer "F.SilkS") (width 0.1524) (tstamp cc840e87-c3ce-4ce2-b90c-4229f002dacc))
  (fp_poly (pts
      (xy -1.143 -0.4318)
      (xy -0.762 -0.4318)
      (xy -0.762 -0.9398)
      (xy -1.143 -0.9398)
    ) (layer "F.Fab") (width 0) (fill solid) (tstamp 2645f2e0-3331-4f3e-b293-ff24e5e622b6))
  (fp_poly (pts
      (xy -0.1778 0.9398)
      (xy 0.2032 0.9398)
      (xy 0.2032 0.4318)
      (xy -0.1778 0.4318)
    ) (layer "F.Fab") (width 0) (fill solid) (tstamp 9d05c0a1-4090-47b8-bb8a-447515f193c4))
  (fp_poly (pts
      (xy 0.7874 -0.4318)
      (xy 1.1684 -0.4318)
      (xy 1.1684 -0.9398)
      (xy 0.7874 -0.9398)
    ) (layer "F.Fab") (width 0) (fill solid) (tstamp faae38c5-c8dc-4a25-bc2b-1390382f80af))
  (pad "1" smd rect (at 0 1.143) (size 2.9 2.05) (layers "F.Cu" "F.Mask")
    (solder_mask_margin 0.1016) (tstamp f78fe245-0981-4af4-9ac2-c77f758f13ab))
  (pad "2" smd rect (at -0.95 -1.016) (size 1 1.5) (layers "F.Cu" "F.Mask")
    (solder_mask_margin 0.1016) (tstamp 70ebed67-98df-40bf-bacb-9834f3b66608))
  (pad "3" smd rect (at 0.95 -1.016) (size 1 1.5) (layers "F.Cu" "F.Mask")
    (solder_mask_margin 0.1016) (tstamp 2cab8471-04bb-47a3-ab0e-8ae9abfc2afe))
)
